v {xschem version=3.0.0 file_version=1.2 }
G {}
K {}
V {}
S {}
E {}
N 1130 -140 1130 -100 { lab=GND}
N 1130 -240 1130 -200 { lab=vss}
N 1220 -240 1220 -200 { lab=vdd}
N 1220 -140 1220 -100 { lab=vss}
N 1530 -250 1530 -210 { lab=vss}
N 1320 -340 1320 -300 { lab=vin}
N 1630 -250 1630 -210 { lab=vss}
N 1320 -240 1320 -200 { lab=vsen}
N 1320 -140 1320 -100 { lab=vcm}
N 1210 -430 1340 -430 { lab=ve}
N 1280 -620 1340 -620 { lab=ve}
N 1270 -620 1270 -430 { lab=ve}
N 1270 -620 1280 -620 { lab=ve}
N 1090 -430 1150 -430 { lab=vcm}
N 1400 -430 1450 -430 { lab=vin}
N 1450 -430 1510 -430 { lab=vin}
N 1450 -320 1450 -280 { lab=vss}
N 1450 -430 1450 -380 { lab=vin}
N 1630 -350 1630 -310 { lab=#net1}
N 1780 -410 1780 -390 { lab=vout}
N 1730 -410 1780 -410 { lab=vout}
N 1780 -330 1780 -300 { lab=vss}
N 1540 -390 1590 -390 { lab=vcm}
N 1530 -390 1530 -310 { lab=vcm}
N 1530 -390 1540 -390 { lab=vcm}
N 1510 -430 1590 -430 { lab=vin}
N 1590 -620 1780 -620 { lab=vout}
N 1780 -620 1780 -410 { lab=vout}
N 1340 -620 1530 -620 { lab=ve}
N 1650 -510 1650 -460 {
lab=vdd}
N 1670 -370 1670 -320 {
lab=vss}
C {vsource.sym} 1130 -170 0 0 {name=V1 value=DC\{vss\}}
C {vsource.sym} 1220 -170 0 0 {name=V2 value=DC\{vdd\}}
C {vsource.sym} 1530 -280 0 0 {name=V3 value=DC\{vcm\}}
C {gnd.sym} 1130 -100 0 0 {name=l14 lab=GND}
C {vsource.sym} 1320 -170 0 0 {name=V4 value="sin(0 \{vac\} 1Meg) dc 0 ac 1"}
C {capa.sym} 1320 -270 2 0 {name=C4
m=1
value=1
footprint=1206
device="ceramic capacitor"}
C {lab_pin.sym} 1220 -240 1 0 {name=l15 sig_type=std_logic lab=vdd}
C {lab_pin.sym} 1130 -240 1 0 {name=l16 sig_type=std_logic lab=vss}
C {lab_pin.sym} 1220 -100 3 0 {name=l18 sig_type=std_logic lab=vss}
C {lab_pin.sym} 1530 -210 3 0 {name=l19 sig_type=std_logic lab=vss}
C {lab_pin.sym} 1320 -100 3 0 {name=l20 sig_type=std_logic lab=vcm}
C {lab_pin.sym} 1320 -340 1 0 {name=l21 sig_type=std_logic lab=vin}
C {isource.sym} 1630 -280 0 0 {name=I0 value=DC\{iref\}}
C {lab_pin.sym} 1630 -210 3 0 {name=l22 sig_type=std_logic lab=vss}
C {lab_wire.sym} 1320 -230 3 0 {name=l24 sig_type=std_logic lab=vsen}
C {res.sym} 1180 -430 1 0 {name=R1
value=500
footprint=1206
device=resistor
m=1}
C {res.sym} 1370 -430 1 0 {name=R2
value=1G
footprint=1206
device=resistor
m=1}
C {res.sym} 1560 -620 1 0 {name=R3
value=5k
footprint=1206
device=resistor
m=1}
C {lab_pin.sym} 1090 -430 0 0 {name=l25 sig_type=std_logic lab=vcm}
C {lab_wire.sym} 1250 -430 0 0 {name=l26 sig_type=std_logic lab=ve

}
C {lab_pin.sym} 1450 -280 3 0 {name=l28 sig_type=std_logic lab=vss
}
C {capa.sym} 1450 -350 0 0 {name=C5
m=1
value=5p
footprint=1206
device="ceramic capacitor"}
C {netlist_not_shown.sym} 1080 -600 0 0 {name=SIMULATION only_toplevel=false 

value="


* Circuit Parameters
.param iref = 100u
.param vdd  = 1.8
.param vss  = 0.0
.param vcm  = 0.9
.param vac  = 10m
.options TEMP = 65.0

* Include Models
.lib ~/skywater/skywater-pdk/libraries/sky130_fd_pr_ngspice/latest/models/corners/sky130.lib TT

* OP Parameters & Singals to save
.save all
+ @M.X1.XM1.msky130_fd_pr__pfet_01v8_lvt[id] @M.X1.XM1.msky130_fd_pr__pfet_01v8_lvt[vth] @M.X1.XM1.msky130_fd_pr__pfet_01v8_lvt[vgs] @M.X1.XM1.msky130_fd_pr__pfet_01v8_lvt[vds] @M.X1.XM1.msky130_fd_pr__pfet_01v8_lvt[vdsat] @M.X1.XM1.msky130_fd_pr__pfet_01v8_lvt[gm] @M.X1.XM1.msky130_fd_pr__pfet_01v8_lvt[gds]
+ @M.X1.XM2.msky130_fd_pr__pfet_01v8_lvt[id] @M.X1.XM2.msky130_fd_pr__pfet_01v8_lvt[vth] @M.X1.XM2.msky130_fd_pr__pfet_01v8_lvt[vgs] @M.X1.XM2.msky130_fd_pr__pfet_01v8_lvt[vds] @M.X1.XM2.msky130_fd_pr__pfet_01v8_lvt[vdsat] @M.X1.XM2.msky130_fd_pr__pfet_01v8_lvt[gm] @M.X1.XM2.msky130_fd_pr__pfet_01v8_lvt[gds]
+ @M.X1.XM3.msky130_fd_pr__nfet_01v8[id] @M.X1.XM3.msky130_fd_pr__nfet_01v8[vth] @M.X1.XM3.msky130_fd_pr__nfet_01v8[vgs] @M.X1.XM3.msky130_fd_pr__nfet_01v8[vds] @M.X1.XM3.msky130_fd_pr__nfet_01v8[vdsat] @M.X1.XM3.msky130_fd_pr__nfet_01v8[gm] @M.X1.XM3.msky130_fd_pr__nfet_01v8[gds]
+ @M.X1.XM4.msky130_fd_pr__nfet_01v8[id] @M.X1.XM4.msky130_fd_pr__nfet_01v8[vth] @M.X1.XM4.msky130_fd_pr__nfet_01v8[vgs] @M.X1.XM4.msky130_fd_pr__nfet_01v8[vds] @M.X1.XM4.msky130_fd_pr__nfet_01v8[vdsat] @M.X1.XM4.msky130_fd_pr__nfet_01v8[gm] @M.X1.XM4.msky130_fd_pr__nfet_01v8[gds]
+ @M.X1.XM5.msky130_fd_pr__pfet_01v8[id] @M.X1.XM5.msky130_fd_pr__pfet_01v8[vth] @M.X1.XM5.msky130_fd_pr__pfet_01v8[vgs] @M.X1.XM5.msky130_fd_pr__pfet_01v8[vds] @M.X1.XM5.msky130_fd_pr__pfet_01v8[vdsat] @M.X1.XM5.msky130_fd_pr__pfet_01v8[gm] @M.X1.XM5.msky130_fd_pr__pfet_01v8[gds]
+ @M.X1.XM6.msky130_fd_pr__nfet_01v8[id] @M.X1.XM6.msky130_fd_pr__nfet_01v8[vth] @M.X1.XM6.msky130_fd_pr__nfet_01v8[vgs] @M.X1.XM6.msky130_fd_pr__nfet_01v8[vds] @M.X1.XM6.msky130_fd_pr__nfet_01v8[vdsat] @M.X1.XM6.msky130_fd_pr__nfet_01v8[gm] @M.X1.XM6.msky130_fd_pr__nfet_01v8[gds]
+ @M.X1.XM7.msky130_fd_pr__pfet_01v8[id] @M.X1.XM7.msky130_fd_pr__pfet_01v8[vth] @M.X1.XM7.msky130_fd_pr__pfet_01v8[vgs] @M.X1.XM7.msky130_fd_pr__pfet_01v8[vds] @M.X1.XM7.msky130_fd_pr__pfet_01v8[vdsat] @M.X1.XM7.msky130_fd_pr__pfet_01v8[gm] @M.X1.XM7.msky130_fd_pr__pfet_01v8[gds]
+ @M.X1.XM8.msky130_fd_pr__pfet_01v8[id] @M.X1.XM8.msky130_fd_pr__pfet_01v8[vth] @M.X1.XM8.msky130_fd_pr__pfet_01v8[vgs] @M.X1.XM8.msky130_fd_pr__pfet_01v8[vds] @M.X1.XM8.msky130_fd_pr__pfet_01v8[vdsat] @M.X1.XM8.msky130_fd_pr__pfet_01v8[gm] @M.X1.XM8.msky130_fd_pr__pfet_01v8[gds]
+ @M.X1.XM9.msky130_fd_pr__nfet_01v8[id] @M.X1.XM9.msky130_fd_pr__nfet_01v8[vth] @M.X1.XM9.msky130_fd_pr__nfet_01v8[vgs] @M.X1.XM9.msky130_fd_pr__nfet_01v8[vds] @M.X1.XM9.msky130_fd_pr__nfet_01v8[vdsat] @M.X1.XM9.msky130_fd_pr__nfet_01v8[gm] @M.X1.XM9.msky130_fd_pr__nfet_01v8[gds]

*Simulation
.control

.endc

.end
"}
C {capa.sym} 1780 -360 0 0 {name=C1
m=1
value=20p
footprint=1206
device="ceramic capacitor"}
C {lab_pin.sym} 1780 -300 3 0 {name=l2 sig_type=std_logic lab=vss}
C {lab_wire.sym} 1770 -410 0 0 {name=l3 sig_type=std_logic lab=vout

}
C {lab_wire.sym} 1570 -390 0 0 {name=l5 sig_type=std_logic lab=vcm

}
C {lab_wire.sym} 1520 -430 0 0 {name=l6 sig_type=std_logic lab=vin

}
C {ngspice_probe.sym} 1780 -410 0 0 {name=r1}
C {opamp.sym} 1650 -410 0 0 {name=x1}
C {lab_pin.sym} 1650 -500 2 0 {name=l1 sig_type=std_logic lab=vdd}
C {lab_pin.sym} 1670 -340 2 0 {name=l4 sig_type=std_logic lab=vss}
C {ngspice_probe.sym} 1630 -330 2 0 {name=r2}
C {ngspice_probe.sym} 1520 -430 2 0 {name=r3}
C {ngspice_probe.sym} 1580 -390 2 0 {name=r4}
C {ngspice_probe.sym} 1270 -480 0 0 {name=r5}
